src/dump.vcd
$date
	Mon Sep 19 10:35:22 2022
$end
$version
	Bluespec VCD dumper 2.1
$end
$timescale
	1 us
$end
$scope module main $end
$scope module top $end
$var reg 1 ! CLK $end
$var reg 1 ! CLK $end
$var reg 1 " CAN_FIRE_RL_done $end
$var reg 1 # CAN_FIRE_RL_dut_rl_add_one $end
$var reg 1 $ CAN_FIRE_RL_start $end
$var reg 1 % RST_N $end
$var reg 1 & WILL_FIRE_RL_done $end
$var reg 1 ' WILL_FIRE_RL_dut_rl_add_one $end
$var reg 1 ( WILL_FIRE_RL_start $end
$var reg 32 ) v__h443 $end
$var reg 32 - dut_rg_data $end
$var reg 2 . dut_rg_state $end
$var reg 2 / status $end
$upscope $end
$upscope $end
$enddefinitions $end
1!
0"
0#
0$
0%
0&
0'
0(
b10101010101010101010101010101010 )
b0 -
b0 .
b0 /
1$
1(
b0 )
#5
0!
1%
#10
1#
0$
1'
0(
b11011110101011011010111011101111 )
1!
b11011110101011011010111011101111 -
b1 .
b1 /
#15
0!
#20
b11011110101011011010111011110000 )
1!
b11011110101011011010111011110000 -
#25
0!
#30
b11011110101011011010111011110001 )
1!
b11011110101011011010111011110001 -
#35
0!
#40
b11011110101011011010111011110010 )
1!
b11011110101011011010111011110010 -
#45
0!
#50
b11011110101011011010111011110011 )
1!
b11011110101011011010111011110011 -
#55
0!
#60
b11011110101011011010111011110100 )
1!
b11011110101011011010111011110100 -
#65
0!
#70
b11011110101011011010111011110101 )
1!
b11011110101011011010111011110101 -
#75
0!
#80
b11011110101011011010111011110110 )
1!
b11011110101011011010111011110110 -
#85
0!
#90
b11011110101011011010111011110111 )
1!
b11011110101011011010111011110111 -
#95
0!
#100
b11011110101011011010111011111000 )
1!
b11011110101011011010111011111000 -
#105
0!
#110
b11011110101011011010111011111001 )
1!
b11011110101011011010111011111001 -
#115
0!
#120
b11011110101011011010111011111010 )
1!
b11011110101011011010111011111010 -
#125
0!
#130
b11011110101011011010111011111011 )
1!
b11011110101011011010111011111011 -
#135
0!
#140
b11011110101011011010111011111100 )
1!
b11011110101011011010111011111100 -
#145
0!
#150
b11011110101011011010111011111101 )
1!
b11011110101011011010111011111101 -
#155
0!
#160
b11011110101011011010111011111110 )
1!
b11011110101011011010111011111110 -
#165
0!
#170
b11011110101011011010111011111111 )
1!
b11011110101011011010111011111111 -
#175
0!
#180
b11011110101011011010111100000000 )
1!
b11011110101011011010111100000000 -
#185
0!
#190
b11011110101011011010111100000001 )
1!
b11011110101011011010111100000001 -
#195
0!
#200
b11011110101011011010111100000010 )
1!
b11011110101011011010111100000010 -
#205
0!
#210
b11011110101011011010111100000011 )
1!
b11011110101011011010111100000011 -
#215
0!
#220
b11011110101011011010111100000100 )
1!
b11011110101011011010111100000100 -
#225
0!
#230
b11011110101011011010111100000101 )
1!
b11011110101011011010111100000101 -
#235
0!
#240
b11011110101011011010111100000110 )
1!
b11011110101011011010111100000110 -
#245
0!
#250
b11011110101011011010111100000111 )
1!
b11011110101011011010111100000111 -
#255
0!
#260
b11011110101011011010111100001000 )
1!
b11011110101011011010111100001000 -
#265
0!
#270
b11011110101011011010111100001001 )
1!
b11011110101011011010111100001001 -
#275
0!
#280
b11011110101011011010111100001010 )
1!
b11011110101011011010111100001010 -
#285
0!
#290
b11011110101011011010111100001011 )
1!
b11011110101011011010111100001011 -
#295
0!
#300
b11011110101011011010111100001100 )
1!
b11011110101011011010111100001100 -
#305
0!
#310
b11011110101011011010111100001101 )
1!
b11011110101011011010111100001101 -
#315
0!
#320
b11011110101011011010111100001110 )
1!
b11011110101011011010111100001110 -
#325
0!
#330
b11011110101011011010111100001111 )
1!
b11011110101011011010111100001111 -
#335
0!
#340
b11011110101011011010111100010000 )
1!
b11011110101011011010111100010000 -
#345
0!
#350
b11011110101011011010111100010001 )
1!
b11011110101011011010111100010001 -
#355
0!
#360
b11011110101011011010111100010010 )
1!
b11011110101011011010111100010010 -
#365
0!
#370
b11011110101011011010111100010011 )
1!
b11011110101011011010111100010011 -
#375
0!
#380
b11011110101011011010111100010100 )
1!
b11011110101011011010111100010100 -
#385
0!
#390
b11011110101011011010111100010101 )
1!
b11011110101011011010111100010101 -
#395
0!
#400
b11011110101011011010111100010110 )
1!
b11011110101011011010111100010110 -
#405
0!
#410
b11011110101011011010111100010111 )
1!
b11011110101011011010111100010111 -
#415
0!
#420
b11011110101011011010111100011000 )
1!
b11011110101011011010111100011000 -
#425
0!
#430
b11011110101011011010111100011001 )
1!
b11011110101011011010111100011001 -
#435
0!
#440
b11011110101011011010111100011010 )
1!
b11011110101011011010111100011010 -
#445
0!
#450
b11011110101011011010111100011011 )
1!
b11011110101011011010111100011011 -
#455
0!
#460
b11011110101011011010111100011100 )
1!
b11011110101011011010111100011100 -
#465
0!
#470
b11011110101011011010111100011101 )
1!
b11011110101011011010111100011101 -
#475
0!
#480
b11011110101011011010111100011110 )
1!
b11011110101011011010111100011110 -
#485
0!
#490
b11011110101011011010111100011111 )
1!
b11011110101011011010111100011111 -
#495
0!
#500
b11011110101011011010111100100000 )
1!
b11011110101011011010111100100000 -
#505
0!
#510
b11011110101011011010111100100001 )
1!
b11011110101011011010111100100001 -
#515
0!
#520
b11011110101011011010111100100010 )
1!
b11011110101011011010111100100010 -
#525
0!
#530
b11011110101011011010111100100011 )
1!
b11011110101011011010111100100011 -
#535
0!
#540
b11011110101011011010111100100100 )
1!
b11011110101011011010111100100100 -
#545
0!
#550
b11011110101011011010111100100101 )
1!
b11011110101011011010111100100101 -
#555
0!
#560
b11011110101011011010111100100110 )
1!
b11011110101011011010111100100110 -
#565
0!
#570
b11011110101011011010111100100111 )
1!
b11011110101011011010111100100111 -
#575
0!
#580
b11011110101011011010111100101000 )
1!
b11011110101011011010111100101000 -
#585
0!
#590
b11011110101011011010111100101001 )
1!
b11011110101011011010111100101001 -
#595
0!
#600
b11011110101011011010111100101010 )
1!
b11011110101011011010111100101010 -
#605
0!
#610
b11011110101011011010111100101011 )
1!
b11011110101011011010111100101011 -
#615
0!
#620
b11011110101011011010111100101100 )
1!
b11011110101011011010111100101100 -
#625
0!
#630
b11011110101011011010111100101101 )
1!
b11011110101011011010111100101101 -
#635
0!
#640
b11011110101011011010111100101110 )
1!
b11011110101011011010111100101110 -
#645
0!
#650
b11011110101011011010111100101111 )
1!
b11011110101011011010111100101111 -
#655
0!
#660
b11011110101011011010111100110000 )
1!
b11011110101011011010111100110000 -
#665
0!
#670
b11011110101011011010111100110001 )
1!
b11011110101011011010111100110001 -
#675
0!
#680
b11011110101011011010111100110010 )
1!
b11011110101011011010111100110010 -
#685
0!
#690
b11011110101011011010111100110011 )
1!
b11011110101011011010111100110011 -
#695
0!
#700
b11011110101011011010111100110100 )
1!
b11011110101011011010111100110100 -
#705
0!
#710
b11011110101011011010111100110101 )
1!
b11011110101011011010111100110101 -
#715
0!
#720
b11011110101011011010111100110110 )
1!
b11011110101011011010111100110110 -
#725
0!
#730
b11011110101011011010111100110111 )
1!
b11011110101011011010111100110111 -
#735
0!
#740
b11011110101011011010111100111000 )
1!
b11011110101011011010111100111000 -
#745
0!
#750
b11011110101011011010111100111001 )
1!
b11011110101011011010111100111001 -
#755
0!
#760
b11011110101011011010111100111010 )
1!
b11011110101011011010111100111010 -
#765
0!
#770
b11011110101011011010111100111011 )
1!
b11011110101011011010111100111011 -
#775
0!
#780
b11011110101011011010111100111100 )
1!
b11011110101011011010111100111100 -
#785
0!
#790
b11011110101011011010111100111101 )
1!
b11011110101011011010111100111101 -
#795
0!
#800
b11011110101011011010111100111110 )
1!
b11011110101011011010111100111110 -
#805
0!
#810
b11011110101011011010111100111111 )
1!
b11011110101011011010111100111111 -
#815
0!
#820
b11011110101011011010111101000000 )
1!
b11011110101011011010111101000000 -
#825
0!
#830
b11011110101011011010111101000001 )
1!
b11011110101011011010111101000001 -
#835
0!
#840
b11011110101011011010111101000010 )
1!
b11011110101011011010111101000010 -
#845
0!
#850
b11011110101011011010111101000011 )
1!
b11011110101011011010111101000011 -
#855
0!
#860
b11011110101011011010111101000100 )
1!
b11011110101011011010111101000100 -
#865
0!
#870
b11011110101011011010111101000101 )
1!
b11011110101011011010111101000101 -
#875
0!
#880
b11011110101011011010111101000110 )
1!
b11011110101011011010111101000110 -
#885
0!
#890
b11011110101011011010111101000111 )
1!
b11011110101011011010111101000111 -
#895
0!
#900
b11011110101011011010111101001000 )
1!
b11011110101011011010111101001000 -
#905
0!
#910
b11011110101011011010111101001001 )
1!
b11011110101011011010111101001001 -
#915
0!
#920
b11011110101011011010111101001010 )
1!
b11011110101011011010111101001010 -
#925
0!
#930
b11011110101011011010111101001011 )
1!
b11011110101011011010111101001011 -
#935
0!
#940
b11011110101011011010111101001100 )
1!
b11011110101011011010111101001100 -
#945
0!
#950
b11011110101011011010111101001101 )
1!
b11011110101011011010111101001101 -
#955
0!
#960
b11011110101011011010111101001110 )
1!
b11011110101011011010111101001110 -
#965
0!
#970
b11011110101011011010111101001111 )
1!
b11011110101011011010111101001111 -
#975
0!
#980
b11011110101011011010111101010000 )
1!
b11011110101011011010111101010000 -
#985
0!
#990
b11011110101011011010111101010001 )
1!
b11011110101011011010111101010001 -
#995
0!
#1000
b11011110101011011010111101010010 )
1!
b11011110101011011010111101010010 -
#1005
0!
#1010
b11011110101011011010111101010011 )
1!
b11011110101011011010111101010011 -
#1015
0!
#1020
b11011110101011011010111101010100 )
1!
b11011110101011011010111101010100 -
#1025
0!
#1030
b11011110101011011010111101010101 )
1!
b11011110101011011010111101010101 -
#1035
0!
#1040
b11011110101011011010111101010110 )
1!
b11011110101011011010111101010110 -
#1045
0!
#1050
b11011110101011011010111101010111 )
1!
b11011110101011011010111101010111 -
#1055
0!
#1060
b11011110101011011010111101011000 )
1!
b11011110101011011010111101011000 -
#1065
0!
#1070
b11011110101011011010111101011001 )
1!
b11011110101011011010111101011001 -
#1075
0!
#1080
b11011110101011011010111101011010 )
1!
b11011110101011011010111101011010 -
#1085
0!
#1090
b11011110101011011010111101011011 )
1!
b11011110101011011010111101011011 -
#1095
0!
#1100
b11011110101011011010111101011100 )
1!
b11011110101011011010111101011100 -
#1105
0!
#1110
b11011110101011011010111101011101 )
1!
b11011110101011011010111101011101 -
#1115
0!
#1120
b11011110101011011010111101011110 )
1!
b11011110101011011010111101011110 -
#1125
0!
#1130
b11011110101011011010111101011111 )
1!
b11011110101011011010111101011111 -
#1135
0!
#1140
b11011110101011011010111101100000 )
1!
b11011110101011011010111101100000 -
#1145
0!
#1150
b11011110101011011010111101100001 )
1!
b11011110101011011010111101100001 -
#1155
0!
#1160
b11011110101011011010111101100010 )
1!
b11011110101011011010111101100010 -
#1165
0!
#1170
b11011110101011011010111101100011 )
1!
b11011110101011011010111101100011 -
#1175
0!
#1180
b11011110101011011010111101100100 )
1!
b11011110101011011010111101100100 -
#1185
0!
#1190
b11011110101011011010111101100101 )
1!
b11011110101011011010111101100101 -
#1195
0!
#1200
b11011110101011011010111101100110 )
1!
b11011110101011011010111101100110 -
#1205
0!
#1210
b11011110101011011010111101100111 )
1!
b11011110101011011010111101100111 -
#1215
0!
#1220
b11011110101011011010111101101000 )
1!
b11011110101011011010111101101000 -
#1225
0!
#1230
b11011110101011011010111101101001 )
1!
b11011110101011011010111101101001 -
#1235
0!
#1240
b11011110101011011010111101101010 )
1!
b11011110101011011010111101101010 -
#1245
0!
#1250
b11011110101011011010111101101011 )
1!
b11011110101011011010111101101011 -
#1255
0!
#1260
b11011110101011011010111101101100 )
1!
b11011110101011011010111101101100 -
#1265
0!
#1270
b11011110101011011010111101101101 )
1!
b11011110101011011010111101101101 -
#1275
0!
#1280
b11011110101011011010111101101110 )
1!
b11011110101011011010111101101110 -
#1285
0!
#1290
b11011110101011011010111101101111 )
1!
b11011110101011011010111101101111 -
#1295
0!
#1300
b11011110101011011010111101110000 )
1!
b11011110101011011010111101110000 -
#1305
0!
#1310
b11011110101011011010111101110001 )
1!
b11011110101011011010111101110001 -
#1315
0!
#1320
b11011110101011011010111101110010 )
1!
b11011110101011011010111101110010 -
#1325
0!
#1330
b11011110101011011010111101110011 )
1!
b11011110101011011010111101110011 -
#1335
0!
#1340
b11011110101011011010111101110100 )
1!
b11011110101011011010111101110100 -
#1345
0!
#1350
b11011110101011011010111101110101 )
1!
b11011110101011011010111101110101 -
#1355
0!
#1360
b11011110101011011010111101110110 )
1!
b11011110101011011010111101110110 -
#1365
0!
#1370
b11011110101011011010111101110111 )
1!
b11011110101011011010111101110111 -
#1375
0!
#1380
b11011110101011011010111101111000 )
1!
b11011110101011011010111101111000 -
#1385
0!
#1390
b11011110101011011010111101111001 )
1!
b11011110101011011010111101111001 -
#1395
0!
#1400
b11011110101011011010111101111010 )
1!
b11011110101011011010111101111010 -
#1405
0!
#1410
b11011110101011011010111101111011 )
1!
b11011110101011011010111101111011 -
#1415
0!
#1420
b11011110101011011010111101111100 )
1!
b11011110101011011010111101111100 -
#1425
0!
#1430
b11011110101011011010111101111101 )
1!
b11011110101011011010111101111101 -
#1435
0!
#1440
b11011110101011011010111101111110 )
1!
b11011110101011011010111101111110 -
#1445
0!
#1450
b11011110101011011010111101111111 )
1!
b11011110101011011010111101111111 -
#1455
0!
#1460
b11011110101011011010111110000000 )
1!
b11011110101011011010111110000000 -
#1465
0!
#1470
b11011110101011011010111110000001 )
1!
b11011110101011011010111110000001 -
#1475
0!
#1480
b11011110101011011010111110000010 )
1!
b11011110101011011010111110000010 -
#1485
0!
#1490
b11011110101011011010111110000011 )
1!
b11011110101011011010111110000011 -
#1495
0!
#1500
b11011110101011011010111110000100 )
1!
b11011110101011011010111110000100 -
#1505
0!
#1510
b11011110101011011010111110000101 )
1!
b11011110101011011010111110000101 -
#1515
0!
#1520
b11011110101011011010111110000110 )
1!
b11011110101011011010111110000110 -
#1525
0!
#1530
b11011110101011011010111110000111 )
1!
b11011110101011011010111110000111 -
#1535
0!
#1540
b11011110101011011010111110001000 )
1!
b11011110101011011010111110001000 -
#1545
0!
#1550
b11011110101011011010111110001001 )
1!
b11011110101011011010111110001001 -
#1555
0!
#1560
b11011110101011011010111110001010 )
1!
b11011110101011011010111110001010 -
#1565
0!
#1570
b11011110101011011010111110001011 )
1!
b11011110101011011010111110001011 -
#1575
0!
#1580
b11011110101011011010111110001100 )
1!
b11011110101011011010111110001100 -
#1585
0!
#1590
b11011110101011011010111110001101 )
1!
b11011110101011011010111110001101 -
#1595
0!
#1600
b11011110101011011010111110001110 )
1!
b11011110101011011010111110001110 -
#1605
0!
#1610
b11011110101011011010111110001111 )
1!
b11011110101011011010111110001111 -
#1615
0!
#1620
b11011110101011011010111110010000 )
1!
b11011110101011011010111110010000 -
#1625
0!
#1630
b11011110101011011010111110010001 )
1!
b11011110101011011010111110010001 -
#1635
0!
#1640
b11011110101011011010111110010010 )
1!
b11011110101011011010111110010010 -
#1645
0!
#1650
b11011110101011011010111110010011 )
1!
b11011110101011011010111110010011 -
#1655
0!
#1660
b11011110101011011010111110010100 )
1!
b11011110101011011010111110010100 -
#1665
0!
#1670
b11011110101011011010111110010101 )
1!
b11011110101011011010111110010101 -
#1675
0!
#1680
b11011110101011011010111110010110 )
1!
b11011110101011011010111110010110 -
#1685
0!
#1690
b11011110101011011010111110010111 )
1!
b11011110101011011010111110010111 -
#1695
0!
#1700
b11011110101011011010111110011000 )
1!
b11011110101011011010111110011000 -
#1705
0!
#1710
b11011110101011011010111110011001 )
1!
b11011110101011011010111110011001 -
#1715
0!
#1720
b11011110101011011010111110011010 )
1!
b11011110101011011010111110011010 -
#1725
0!
#1730
b11011110101011011010111110011011 )
1!
b11011110101011011010111110011011 -
#1735
0!
#1740
b11011110101011011010111110011100 )
1!
b11011110101011011010111110011100 -
#1745
0!
#1750
b11011110101011011010111110011101 )
1!
b11011110101011011010111110011101 -
#1755
0!
#1760
b11011110101011011010111110011110 )
1!
b11011110101011011010111110011110 -
#1765
0!
#1770
b11011110101011011010111110011111 )
1!
b11011110101011011010111110011111 -
#1775
0!
#1780
b11011110101011011010111110100000 )
1!
b11011110101011011010111110100000 -
#1785
0!
#1790
b11011110101011011010111110100001 )
1!
b11011110101011011010111110100001 -
#1795
0!
#1800
b11011110101011011010111110100010 )
1!
b11011110101011011010111110100010 -
#1805
0!
#1810
b11011110101011011010111110100011 )
1!
b11011110101011011010111110100011 -
#1815
0!
#1820
b11011110101011011010111110100100 )
1!
b11011110101011011010111110100100 -
#1825
0!
#1830
b11011110101011011010111110100101 )
1!
b11011110101011011010111110100101 -
#1835
0!
#1840
b11011110101011011010111110100110 )
1!
b11011110101011011010111110100110 -
#1845
0!
#1850
b11011110101011011010111110100111 )
1!
b11011110101011011010111110100111 -
#1855
0!
#1860
b11011110101011011010111110101000 )
1!
b11011110101011011010111110101000 -
#1865
0!
#1870
b11011110101011011010111110101001 )
1!
b11011110101011011010111110101001 -
#1875
0!
#1880
b11011110101011011010111110101010 )
1!
b11011110101011011010111110101010 -
#1885
0!
#1890
b11011110101011011010111110101011 )
1!
b11011110101011011010111110101011 -
#1895
0!
#1900
b11011110101011011010111110101100 )
1!
b11011110101011011010111110101100 -
#1905
0!
#1910
b11011110101011011010111110101101 )
1!
b11011110101011011010111110101101 -
#1915
0!
#1920
b11011110101011011010111110101110 )
1!
b11011110101011011010111110101110 -
#1925
0!
#1930
b11011110101011011010111110101111 )
1!
b11011110101011011010111110101111 -
#1935
0!
#1940
b11011110101011011010111110110000 )
1!
b11011110101011011010111110110000 -
#1945
0!
#1950
b11011110101011011010111110110001 )
1!
b11011110101011011010111110110001 -
#1955
0!
#1960
b11011110101011011010111110110010 )
1!
b11011110101011011010111110110010 -
#1965
0!
#1970
b11011110101011011010111110110011 )
1!
b11011110101011011010111110110011 -
#1975
0!
#1980
b11011110101011011010111110110100 )
1!
b11011110101011011010111110110100 -
#1985
0!
#1990
b11011110101011011010111110110101 )
1!
b11011110101011011010111110110101 -
#1995
0!
#2000
b11011110101011011010111110110110 )
1!
b11011110101011011010111110110110 -
#2005
0!
#2010
b11011110101011011010111110110111 )
1!
b11011110101011011010111110110111 -
#2015
0!
#2020
b11011110101011011010111110111000 )
1!
b11011110101011011010111110111000 -
#2025
0!
#2030
b11011110101011011010111110111001 )
1!
b11011110101011011010111110111001 -
#2035
0!
#2040
b11011110101011011010111110111010 )
1!
b11011110101011011010111110111010 -
#2045
0!
#2050
b11011110101011011010111110111011 )
1!
b11011110101011011010111110111011 -
#2055
0!
#2060
b11011110101011011010111110111100 )
1!
b11011110101011011010111110111100 -
#2065
0!
#2070
b11011110101011011010111110111101 )
1!
b11011110101011011010111110111101 -
#2075
0!
#2080
b11011110101011011010111110111110 )
1!
b11011110101011011010111110111110 -
#2085
0!
#2090
b11011110101011011010111110111111 )
1!
b11011110101011011010111110111111 -
#2095
0!
#2100
b11011110101011011010111111000000 )
1!
b11011110101011011010111111000000 -
#2105
0!
#2110
b11011110101011011010111111000001 )
1!
b11011110101011011010111111000001 -
#2115
0!
#2120
b11011110101011011010111111000010 )
1!
b11011110101011011010111111000010 -
#2125
0!
#2130
b11011110101011011010111111000011 )
1!
b11011110101011011010111111000011 -
#2135
0!
#2140
b11011110101011011010111111000100 )
1!
b11011110101011011010111111000100 -
#2145
0!
#2150
b11011110101011011010111111000101 )
1!
b11011110101011011010111111000101 -
#2155
0!
#2160
b11011110101011011010111111000110 )
1!
b11011110101011011010111111000110 -
#2165
0!
#2170
b11011110101011011010111111000111 )
1!
b11011110101011011010111111000111 -
#2175
0!
#2180
b11011110101011011010111111001000 )
1!
b11011110101011011010111111001000 -
#2185
0!
#2190
b11011110101011011010111111001001 )
1!
b11011110101011011010111111001001 -
#2195
0!
#2200
b11011110101011011010111111001010 )
1!
b11011110101011011010111111001010 -
#2205
0!
#2210
b11011110101011011010111111001011 )
1!
b11011110101011011010111111001011 -
#2215
0!
#2220
b11011110101011011010111111001100 )
1!
b11011110101011011010111111001100 -
#2225
0!
#2230
b11011110101011011010111111001101 )
1!
b11011110101011011010111111001101 -
#2235
0!
#2240
b11011110101011011010111111001110 )
1!
b11011110101011011010111111001110 -
#2245
0!
#2250
b11011110101011011010111111001111 )
1!
b11011110101011011010111111001111 -
#2255
0!
#2260
b11011110101011011010111111010000 )
1!
b11011110101011011010111111010000 -
#2265
0!
#2270
b11011110101011011010111111010001 )
1!
b11011110101011011010111111010001 -
#2275
0!
#2280
b11011110101011011010111111010010 )
1!
b11011110101011011010111111010010 -
#2285
0!
#2290
b11011110101011011010111111010011 )
1!
b11011110101011011010111111010011 -
#2295
0!
#2300
b11011110101011011010111111010100 )
1!
b11011110101011011010111111010100 -
#2305
0!
#2310
b11011110101011011010111111010101 )
1!
b11011110101011011010111111010101 -
#2315
0!
#2320
b11011110101011011010111111010110 )
1!
b11011110101011011010111111010110 -
#2325
0!
#2330
b11011110101011011010111111010111 )
1!
b11011110101011011010111111010111 -
#2335
0!
#2340
b11011110101011011010111111011000 )
1!
b11011110101011011010111111011000 -
#2345
0!
#2350
b11011110101011011010111111011001 )
1!
b11011110101011011010111111011001 -
#2355
0!
#2360
b11011110101011011010111111011010 )
1!
b11011110101011011010111111011010 -
#2365
0!
#2370
b11011110101011011010111111011011 )
1!
b11011110101011011010111111011011 -
#2375
0!
#2380
b11011110101011011010111111011100 )
1!
b11011110101011011010111111011100 -
#2385
0!
#2390
b11011110101011011010111111011101 )
1!
b11011110101011011010111111011101 -
#2395
0!
#2400
b11011110101011011010111111011110 )
1!
b11011110101011011010111111011110 -
#2405
0!
#2410
b11011110101011011010111111011111 )
1!
b11011110101011011010111111011111 -
#2415
0!
#2420
b11011110101011011010111111100000 )
1!
b11011110101011011010111111100000 -
#2425
0!
#2430
b11011110101011011010111111100001 )
1!
b11011110101011011010111111100001 -
#2435
0!
#2440
b11011110101011011010111111100010 )
1!
b11011110101011011010111111100010 -
#2445
0!
#2450
b11011110101011011010111111100011 )
1!
b11011110101011011010111111100011 -
#2455
0!
#2460
b11011110101011011010111111100100 )
1!
b11011110101011011010111111100100 -
#2465
0!
#2470
b11011110101011011010111111100101 )
1!
b11011110101011011010111111100101 -
#2475
0!
#2480
b11011110101011011010111111100110 )
1!
b11011110101011011010111111100110 -
#2485
0!
#2490
b11011110101011011010111111100111 )
1!
b11011110101011011010111111100111 -
#2495
0!
#2500
b11011110101011011010111111101000 )
1!
b11011110101011011010111111101000 -
#2505
0!
#2510
b11011110101011011010111111101001 )
1!
b11011110101011011010111111101001 -
#2515
0!
#2520
b11011110101011011010111111101010 )
1!
b11011110101011011010111111101010 -
#2525
0!
#2530
b11011110101011011010111111101011 )
1!
b11011110101011011010111111101011 -
#2535
0!
#2540
b11011110101011011010111111101100 )
1!
b11011110101011011010111111101100 -
#2545
0!
#2550
b11011110101011011010111111101101 )
1!
b11011110101011011010111111101101 -
#2555
0!
#2560
b11011110101011011010111111101110 )
1!
b11011110101011011010111111101110 -
#2565
0!
#2570
b11011110101011011010111111101111 )
1!
b11011110101011011010111111101111 -
#2575
0!
#2580
b11011110101011011010111111110000 )
1!
b11011110101011011010111111110000 -
#2585
0!
#2590
b11011110101011011010111111110001 )
1!
b11011110101011011010111111110001 -
#2595
0!
#2600
b11011110101011011010111111110010 )
1!
b11011110101011011010111111110010 -
#2605
0!
#2610
b11011110101011011010111111110011 )
1!
b11011110101011011010111111110011 -
#2615
0!
#2620
b11011110101011011010111111110100 )
1!
b11011110101011011010111111110100 -
#2625
0!
#2630
b11011110101011011010111111110101 )
1!
b11011110101011011010111111110101 -
#2635
0!
#2640
b11011110101011011010111111110110 )
1!
b11011110101011011010111111110110 -
#2645
0!
#2650
b11011110101011011010111111110111 )
1!
b11011110101011011010111111110111 -
#2655
0!
#2660
b11011110101011011010111111111000 )
1!
b11011110101011011010111111111000 -
#2665
0!
#2670
b11011110101011011010111111111001 )
1!
b11011110101011011010111111111001 -
#2675
0!
#2680
b11011110101011011010111111111010 )
1!
b11011110101011011010111111111010 -
#2685
0!
#2690
b11011110101011011010111111111011 )
1!
b11011110101011011010111111111011 -
#2695
0!
#2700
b11011110101011011010111111111100 )
1!
b11011110101011011010111111111100 -
#2705
0!
#2710
b11011110101011011010111111111101 )
1!
b11011110101011011010111111111101 -
#2715
0!
#2720
b11011110101011011010111111111110 )
1!
b11011110101011011010111111111110 -
#2725
0!
#2730
b11011110101011011010111111111111 )
1!
b11011110101011011010111111111111 -
#2735
0!
#2740
b11011110101011011011000000000000 )
1!
b11011110101011011011000000000000 -
#2745
0!
#2750
b11011110101011011011000000000001 )
1!
b11011110101011011011000000000001 -
#2755
0!
#2760
b11011110101011011011000000000010 )
1!
b11011110101011011011000000000010 -
#2765
0!
#2770
b11011110101011011011000000000011 )
1!
b11011110101011011011000000000011 -
#2775
0!
#2780
b11011110101011011011000000000100 )
1!
b11011110101011011011000000000100 -
#2785
0!
#2790
b11011110101011011011000000000101 )
1!
b11011110101011011011000000000101 -
#2795
0!
#2800
b11011110101011011011000000000110 )
1!
b11011110101011011011000000000110 -
#2805
0!
#2810
b11011110101011011011000000000111 )
1!
b11011110101011011011000000000111 -
#2815
0!
#2820
b11011110101011011011000000001000 )
1!
b11011110101011011011000000001000 -
#2825
0!
#2830
b11011110101011011011000000001001 )
1!
b11011110101011011011000000001001 -
#2835
0!
#2840
b11011110101011011011000000001010 )
1!
b11011110101011011011000000001010 -
#2845
0!
#2850
b11011110101011011011000000001011 )
1!
b11011110101011011011000000001011 -
#2855
0!
#2860
b11011110101011011011000000001100 )
1!
b11011110101011011011000000001100 -
#2865
0!
#2870
b11011110101011011011000000001101 )
1!
b11011110101011011011000000001101 -
#2875
0!
#2880
b11011110101011011011000000001110 )
1!
b11011110101011011011000000001110 -
#2885
0!
#2890
b11011110101011011011000000001111 )
1!
b11011110101011011011000000001111 -
#2895
0!
#2900
b11011110101011011011000000010000 )
1!
b11011110101011011011000000010000 -
#2905
0!
#2910
b11011110101011011011000000010001 )
1!
b11011110101011011011000000010001 -
#2915
0!
#2920
b11011110101011011011000000010010 )
1!
b11011110101011011011000000010010 -
#2925
0!
#2930
b11011110101011011011000000010011 )
1!
b11011110101011011011000000010011 -
#2935
0!
#2940
b11011110101011011011000000010100 )
1!
b11011110101011011011000000010100 -
#2945
0!
#2950
b11011110101011011011000000010101 )
1!
b11011110101011011011000000010101 -
#2955
0!
#2960
b11011110101011011011000000010110 )
1!
b11011110101011011011000000010110 -
#2965
0!
#2970
b11011110101011011011000000010111 )
1!
b11011110101011011011000000010111 -
#2975
0!
#2980
b11011110101011011011000000011000 )
1!
b11011110101011011011000000011000 -
#2985
0!
#2990
b11011110101011011011000000011001 )
1!
b11011110101011011011000000011001 -
#2995
0!
#3000
b11011110101011011011000000011010 )
1!
b11011110101011011011000000011010 -
#3005
0!
#3010
b11011110101011011011000000011011 )
1!
b11011110101011011011000000011011 -
#3015
0!
#3020
b11011110101011011011000000011100 )
1!
b11011110101011011011000000011100 -
#3025
0!
#3030
b11011110101011011011000000011101 )
1!
b11011110101011011011000000011101 -
#3035
0!
#3040
b11011110101011011011000000011110 )
1!
b11011110101011011011000000011110 -
#3045
0!
#3050
b11011110101011011011000000011111 )
1!
b11011110101011011011000000011111 -
#3055
0!
#3060
b11011110101011011011000000100000 )
1!
b11011110101011011011000000100000 -
#3065
0!
#3070
b11011110101011011011000000100001 )
1!
b11011110101011011011000000100001 -
#3075
0!
#3080
b11011110101011011011000000100010 )
1!
b11011110101011011011000000100010 -
#3085
0!
#3090
b11011110101011011011000000100011 )
1!
b11011110101011011011000000100011 -
#3095
0!
#3100
b11011110101011011011000000100100 )
1!
b11011110101011011011000000100100 -
#3105
0!
#3110
b11011110101011011011000000100101 )
1!
b11011110101011011011000000100101 -
#3115
0!
#3120
b11011110101011011011000000100110 )
1!
b11011110101011011011000000100110 -
#3125
0!
#3130
b11011110101011011011000000100111 )
1!
b11011110101011011011000000100111 -
#3135
0!
#3140
b11011110101011011011000000101000 )
1!
b11011110101011011011000000101000 -
#3145
0!
#3150
b11011110101011011011000000101001 )
1!
b11011110101011011011000000101001 -
#3155
0!
#3160
b11011110101011011011000000101010 )
1!
b11011110101011011011000000101010 -
#3165
0!
#3170
b11011110101011011011000000101011 )
1!
b11011110101011011011000000101011 -
#3175
0!
#3180
b11011110101011011011000000101100 )
1!
b11011110101011011011000000101100 -
#3185
0!
#3190
b11011110101011011011000000101101 )
1!
b11011110101011011011000000101101 -
#3195
0!
#3200
b11011110101011011011000000101110 )
1!
b11011110101011011011000000101110 -
#3205
0!
#3210
b11011110101011011011000000101111 )
1!
b11011110101011011011000000101111 -
#3215
0!
#3220
b11011110101011011011000000110000 )
1!
b11011110101011011011000000110000 -
#3225
0!
#3230
b11011110101011011011000000110001 )
1!
b11011110101011011011000000110001 -
#3235
0!
#3240
b11011110101011011011000000110010 )
1!
b11011110101011011011000000110010 -
#3245
0!
#3250
b11011110101011011011000000110011 )
1!
b11011110101011011011000000110011 -
#3255
0!
#3260
b11011110101011011011000000110100 )
1!
b11011110101011011011000000110100 -
#3265
0!
#3270
b11011110101011011011000000110101 )
1!
b11011110101011011011000000110101 -
#3275
0!
#3280
b11011110101011011011000000110110 )
1!
b11011110101011011011000000110110 -
#3285
0!
#3290
b11011110101011011011000000110111 )
1!
b11011110101011011011000000110111 -
#3295
0!
#3300
b11011110101011011011000000111000 )
1!
b11011110101011011011000000111000 -
#3305
0!
#3310
b11011110101011011011000000111001 )
1!
b11011110101011011011000000111001 -
#3315
0!
#3320
b11011110101011011011000000111010 )
1!
b11011110101011011011000000111010 -
#3325
0!
#3330
b11011110101011011011000000111011 )
1!
b11011110101011011011000000111011 -
#3335
0!
#3340
b11011110101011011011000000111100 )
1!
b11011110101011011011000000111100 -
#3345
0!
